{
    "coord": {
        "lon": 76.79,
        "lat": 30.73
    },
    "weather": [
                {
                "id": 801,
                "main": "Clouds",
                "description": "few clouds",
                "icon": "02d"
                }
                ],
    "base": "stations",
    "main": {
        "temp": 295.829,
        "pressure": 979.29,
        "humidity": 84,
        "temp_min": 295.829,
        "temp_max": 295.829,
        "sea_level": 1027.87,
        "grnd_level": 979.29
    },
    "wind": {
        "speed": 3.06,
        "deg": 114.002
    },
    "clouds": {
        "all": 12
    },
    "dt": 1444705280,
    "sys": {
        "message": 0.0099,
        "country": "IN",
        "sunrise": 1444697614,
        "sunset": 1444739059
    },
    "id": 1274746,
    "name": "Chandigarh",
    "cod": 200
}